Libs/VcdReader/Test/TestFiles/majorityof5.hier.vcd
$date
	Sat Oct 26 22:14:13 2024
$end
$version
	Icarus Verilog
$end
$timescale
	1ps
$end
$scope module tb_majorityof5 $end
$var wire 1 ! led $end
$var reg 5 " sw [4:0] $end
$scope module dut $end
$var wire 1 # abc $end
$var wire 1 $ abd $end
$var wire 1 % abe $end
$var wire 1 & acd $end
$var wire 1 ' ace $end
$var wire 1 ( ade $end
$var wire 1 ) bcd $end
$var wire 1 * bce $end
$var wire 1 + bde $end
$var wire 1 , cde $end
$var wire 1 ! led $end
$var wire 5 - sw [4:0] $end
$upscope $end
$scope begin test $end
$upscope $end
$upscope $end
$enddefinitions $end
$comment Show the parameter values. $end
$dumpall
$end
#0
$dumpvars
b0 -
0,
0+
0*
0)
0(
0'
0&
0%
0$
0#
b0 "
0!
$end
#10000
b1 "
b1 -
#20000
b10 "
b10 -
#30000
b11 "
b11 -
#40000
b100 "
b100 -
#50000
b101 "
b101 -
#60000
b110 "
b110 -
#70000
1!
1#
b111 "
b111 -
#80000
0!
0#
b1000 "
b1000 -
#90000
b1001 "
b1001 -
#100000
b1010 "
b1010 -
#110000
1!
1$
b1011 "
b1011 -
#120000
0!
0$
b1100 "
b1100 -
#130000
1!
1&
b1101 "
b1101 -
#140000
0&
1)
b1110 "
b1110 -
#150000
1#
1$
1&
b1111 "
b1111 -
#160000
0!
0#
0$
0&
0)
b10000 "
b10000 -
#170000
b10001 "
b10001 -
#180000
b10010 "
b10010 -
#190000
1!
1%
b10011 "
b10011 -
#200000
0!
0%
b10100 "
b10100 -
#210000
1!
1'
b10101 "
b10101 -
#220000
0'
1*
b10110 "
b10110 -
#230000
1#
1%
1'
b10111 "
b10111 -
#240000
0!
0#
0%
0'
0*
b11000 "
b11000 -
#250000
1!
1(
b11001 "
b11001 -
#260000
0(
1+
b11010 "
b11010 -
#270000
1$
1%
1(
b11011 "
b11011 -
#280000
0$
0%
0(
0+
1,
b11100 "
b11100 -
#290000
1&
1'
1(
b11101 "
b11101 -
#300000
0&
0'
0(
1)
1*
1+
b11110 "
b11110 -
#310000
1#
1$
1%
1&
1'
1(
b11111 "
b11111 -
#320000
0!
0#
0$
0%
0&
0'
0(
0)
0*
0+
0,
b0 "
b0 -
#330000
b1 "
b1 -
#340000
b10 "
b10 -
#350000
b11 "
b11 -
#360000
b100 "
b100 -
#370000
b101 "
b101 -
#380000
b110 "
b110 -
#390000
1!
1#
b111 "
b111 -
#400000
0!
0#
b1000 "
b1000 -
#410000
b1001 "
b1001 -
#420000
b1010 "
b1010 -
#430000
1!
1$
b1011 "
b1011 -
#440000
0!
0$
b1100 "
b1100 -
#450000
1!
1&
b1101 "
b1101 -
#460000
0&
1)
b1110 "
b1110 -
#470000
1#
1$
1&
b1111 "
b1111 -
#480000
0!
0#
0$
0&
0)
b10000 "
b10000 -
#490000
b10001 "
b10001 -
#500000
b10010 "
b10010 -
